01067,Dresden,13.7210676148814,51.0600336463379
01069,Dresden,13.7389066401609,51.039558876083
01097,Dresden,13.7439674110642,51.0667452412037
01099,Dresden,13.8289798683304,51.0926193047084
01108,Dresden,13.8289798683304,51.0926193047084
01109,Dresden,13.7619645364861,51.1201009324663
01127,Dresden,13.733347378178,51.0796304130158
01129,Dresden,13.7274104697459,51.0967944759693
01139,Dresden,13.6911443969423,51.0805574259239
01156,Cossebaude,13.6233072524789,51.0666308149291
01157,Dresden,13.6708047478723,51.0643076931977
01159,Dresden,13.7006915581674,51.0426057654929
01169,Dresden,13.669187770824,51.0402553993976
01187,Dresden,13.7026657714036,51.0263802661785
01189,Dresden,13.7045105691695,51.0139161289227
01217,Dresden,13.7445163387362,51.0171437482078
01219,Dresden,13.767050572669,51.0223236798061
01237,Dresden,13.7995859170998,51.0175665126765
01239,Dresden,13.7910680057092,51.0026829600855
01257,Dresden,13.8159850373907,50.9967325356128
01259,Dresden,13.8504009228778,50.9954059978924
01277,Dresden,13.7996248266757,51.0358690261521
01279,Dresden,13.829358598703,51.0262558292618
01307,Dresden,13.7726271881428,51.054135498816
01309,Dresden,13.7914262584064,51.0486489302583
01324,Dresden,13.8565349336316,51.0657832255777
01326,Dresden,13.8604932218226,51.0255377692464
01328,Dresden,13.8604932218226,51.0255377692464
01445,Radebeul,13.6432842540266,51.113631945926
01454,Radeberg,13.9174778607087,51.1322204297425
01458,Ottendorf-Okrilla,13.8458463274789,51.1806998157721
01465,Langebrück,13.8529489368089,51.1391981640663
01468,Reichenberg,13.6880862158881,51.1643597588491
01471,Radeburg,13.7337932032249,51.2077931641187
01474,Schönfeld-Weißig,13.9103529151579,51.0419834157698
01477,Arnsdorf bei Dresden,13.985677697989,51.0920430235188
01478,Weixdorf,13.7870919641968,51.1547881534152
01558,Großenhain,13.5315731714366,51.2891145903037
01561,Großenhain,13.6355869926486,51.2976909803264
01587,Riesa,13.2733841506402,51.3026420079985
01589,Riesa,13.3280500186448,51.2932197615145
01591,Riesa,13.2476316657648,51.3185782906327
01594,Riesa,13.2926021143652,51.2602843720622
01609,Gröditz,13.4276267953258,51.3933055816495
01612,Nünchritz,13.4107636804349,51.2971491835087
01616,Strehla,13.233513371901,51.3627774545254
01619,Zeithain,13.3175571414469,51.3693241709444
01623,Lommatzsch,13.2973632027006,51.1651622463419
01640,Coswig,13.580926302194,51.1387586054451
01662,Meißen,13.4806311361759,51.1625202644459
01665,Meißen,13.4489544026039,51.1362568421529
01683,Nossen,13.3391720317397,51.0624700142114
01689,Weinböhla,13.5635350452693,51.1835327936398
01705,Freital,13.6382950999229,50.9981963286795
01723,Wilsdruff,13.5134891000342,51.0284130540989
01728,Bannewitz,13.7291369853809,50.9821082979879
01731,Kreischa,13.7597324486117,50.9487885660998
01734,Rabenau,13.6687274547601,50.9501368757072
01737,Tharandt,13.5201035014231,50.966260898006
01738,Colmnitz,13.5173401169574,50.9152518327972
01744,Dippoldiswalde,13.654532984486,50.8921186026725
01762,Schmiedeberg,13.617842237346,50.8161179074883
01768,Glashütte,13.7645505179288,50.8559644594502
01773,Altenberg,13.7227980508795,50.7701863367731
01774,Höckendorf,13.5669529340257,50.8900816196631
01776,Hermsdorf / Erzgebirge,13.6629879743292,50.7710497670944
01778,Geising,13.8426295641397,50.7650698619091
01796,Pirna,13.9720733354254,50.9371542514534
01809,Heidenau,13.8449931917694,50.9455250223989
01814,Bad Schandau,14.1966335474363,50.9019177714498
01816,Bad Gottleuba,13.9656137628441,50.8298345463513
01819,Berggießhübel,13.9803886523367,50.881784945979
01824,Königstein / Sächsische Schweiz,14.0846392030175,50.8788255493473
01825,Liebstadt,13.8775206298858,50.8604595275301
01827,Graupa,13.9183895533832,50.9902835368459
01829,Stadt Wehlen,14.0107984899764,50.9614393090612
01833,Stolpen,14.0607858764795,51.0396792461695
01844,Neustadt in Sachsen,14.2269924483085,51.0358209294172
01847,Lohmen,14.0186319478249,50.9847555091057
01848,Hohnstein,14.1438042484719,50.9788387434272
01855,Sebnitz,14.2950195709521,50.9386350649986
01877,Bischofswerda,14.2040378831612,51.1251633418218
01896,Pulsnitz,14.0121693844565,51.1825198062342
01900,Großröhrsdorf,14.03375842408,51.1446271877288
01904,Neukirch / Lausitz,14.3276981957342,51.0804156053499
01906,Bischofswerda,14.2077463894613,51.1871408473025
01909,Großharthau,14.0820774273187,51.1085678698569
01917,Kamenz,14.1116269099331,51.2705080744543
01920,Deutschbaselitz,14.1565791843606,51.2693501643649
01936,Königsbrück,13.9378853726551,51.292203230091
01945,Ruhland,13.8797139131573,51.4253935388223
01968,Senftenberg,14.0254798344899,51.5211335699322
01979,Lauchhammer,13.7565048370695,51.5037294774548
01983,Großräschen,14.0516552208333,51.5843420382583
01987,Schwarzheide Niederlausitz,13.8569555558841,51.4828481886264
01990,Ortrand,13.7347367836667,51.3853070881689
01993,Schipkau,13.888210076256,51.5106519906471
01994,Annahütte,13.9241987551606,51.5805372058737
01996,Hosena,14.0337029399463,51.4590845820044
01998,Klettwitz,13.88636824897,51.542571315541
02625,Bautzen,14.4365868353327,51.185667039048
02627,Weißenberg,14.5210189319672,51.1870144256967
02633,Göda,14.3154107010876,51.1657477317624
02681,Wilthen,14.4170717630233,51.0904987506152
02689,Sohland an der Spree,14.4329030522057,51.0463985404994
02692,Obergurig,14.4193340078608,51.1335042068282
02694,Großdubrau,14.537486295937,51.263509210493
02699,Königswartha,14.3502824523528,51.2909424449011
02708,Löbau,14.6697479487381,51.0904319171108
02727,Neugersdorf,14.612798599227,50.9740627941025
02730,Ebersbach,14.6114148308632,51.0138119490906
02733,Cunewalde,14.5281582649865,51.0993958694855
02736,Oppach,14.5169828987071,51.0663183271913
02739,Eibau,14.6550703961587,50.9920097089402
02742,Neusalza-Spremberg,14.5457801319928,51.0313877036959
02744,Oberoderwitz,14.701194489249,50.9697136268045
02747,Herrnhut,14.7628115792269,51.010210638874
02748,Bernstadt,14.8308235048218,51.0473782661179
02763,Zittau,14.7868393700758,50.9087877353582
02779,Großschönau,14.6820187352162,50.9021905899615
02782,Seifhennersdorf,14.6088836183903,50.9360759135317
02785,Olbersdorf,14.765271521555,50.8730183755607
02788,Hirschfelde,14.8706601255607,50.9616452409436
02791,Niederoderwitz,14.7455244809583,50.9542996431919
02794,Leutersdorf,14.6622519416791,50.9475844742316
02796,Jonsdorf,14.6936276890278,50.8528709218412
02797,Oybin,14.7556214151635,50.8399718219569
02799,Waltersdorf,14.6486158737805,50.8645532743721
02826,Görlitz,14.9841912137216,51.1468640705067
02827,Görlitz,14.9644336570507,51.131700588211
02828,Görlitz,14.982757259718,51.169386005347
02829,Görlitz,14.9314445596608,51.1793133227497
02894,Reichenbach / Oberlausitz,14.7837970160583,51.1586210341871
02899,Görlitz,14.9155163330416,51.0413623584693
02906,Niesky,14.7199175414312,51.29686932838
02923,Niesky,14.8877498791934,51.3029904192752
02929,Rothenburg / Oberlausitz,14.9549174346342,51.3584395056961
02943,Weißwasser,14.6231366648455,51.4455327569972
02953,Bad Muskau,14.668792984739,51.5485347944777
02956,Rietschen,14.8071789258513,51.4101443347418
02957,Krauschwitz,14.7980059857637,51.4744440525675
02959,Schleife,14.5263426599706,51.5231251115797
02977,Hoyerswerda,14.2160050897591,51.4239640495388
02979,Hoyerswerda,14.4208851704129,51.4808044896124
02991,Lauta,14.1963095015949,51.4824187384614
02994,Bernsdorf,14.076081833467,51.384897512176
02997,Wittichenau,14.2456691320338,51.3803613459956
02999,Lohsa,14.4314779020423,51.3794218631087
03042,Cottbus,14.4173863028766,51.7758491985757
03044,Cottbus,14.3462668653205,51.7851954322445
03046,Cottbus,14.3105961699576,51.7642841051626
03048,Cottbus,14.3084496695284,51.7386575406352
03050,Cottbus,14.3428162204931,51.7338004398863
03051,Cottbus,14.4173519658731,51.7212475070751
03052,Cottbus,14.429363438563,51.7622304181986
03053,Cottbus,14.3899095323459,51.8050107551662
03054,Cottbus,14.3532943121108,51.8320174376614
03055,Cottbus,14.313416921196,51.814200467229
03058,Gallinchen,14.3905994367258,51.6951974057929
03096,Burg / Spreewald,14.2022775486531,51.8398236297927
03099,Kolkwitz,14.2029591073863,51.7541879060613
03103,Neupetershain,14.1242212424135,51.6263004105257
03116,Drebkau,14.2159936024012,51.6464926876213
03119,Welzow,14.1786551453494,51.5759831900948
03130,Spremberg,14.4285361926079,51.5920052162884
03139,Schwarze Pumpe,14.3242706344034,51.531349538805
03149,Forst / Lausitz,14.6080429265096,51.726184190725
03159,Döbern,14.6600872851445,51.6305296247609
03172,Guben,14.5761587483961,51.9595001517035
03185,Peitz,14.4152417815639,51.8779405940495
03197,Jänschwalde,14.5297330572813,51.8798303187555
03205,Calau,13.9487286548992,51.7280249390139
03222,Lübbenau / Spreewald,13.9276631924957,51.8541016396787
03226,Vetschau,14.0521859735019,51.8155505018191
03229,Altdöbern,14.0576959342314,51.6655994167392
03238,Finsterwalde,13.7177879378029,51.6008449442302
03246,Crinitz,13.7803983499336,51.7331039787029
03249,Sonnewalde,13.66779456204,51.7076077577057
03253,Doberlug-Kirchhain,13.500302391339,51.6401628467384
04103,Leipzig,12.393171634463,51.332993367659
04105,Leipzig,12.3615440257456,51.3532158481417
04107,Leipzig,12.3730717463847,51.3319369827246
04109,Leipzig,12.3662239114281,51.3401650247005
04129,Leipzig,12.3909879710159,51.3734807468274
04155,Leipzig,12.3628330267093,51.3628550951064
04157,Leipzig,12.3717511984241,51.3758698758593
04158,Leipzig,12.3717511984241,51.3758698758593
04159,Leipzig,12.3292220441593,51.3743049194689
04177,Leipzig,12.3344688082617,51.3409795431399
04178,Leipzig,12.263,51.3532
04179,Leipzig,12.3167739858808,51.3481006668968
04205,Leipzig,12.2736152868547,51.3272343390933
04207,Leipzig,12.2755323469935,51.3077370124942
04209,Leipzig,12.2989041810904,51.3222662708309
04229,Leipzig,12.3389412705666,51.3215175964767
04249,Leipzig,12.3145431203951,51.2877503441252
04275,Leipzig,12.3738452832566,51.3226214111902
04277,Leipzig,12.3725898920218,51.3077587079575
04279,Leipzig,12.4014143330105,51.294430853771
04288,Leipzig,12.4014143330105,51.294430853771
04289,Leipzig,12.4295352839182,51.301078473028
04299,Leipzig,12.4288304537393,51.319258618199
04315,Leipzig,12.4093019668461,51.3470546635018
04316,Leipzig,12.4093019668461,51.3470546635018
04317,Leipzig,12.4065008216017,51.3324690822652
04318,Leipzig,12.4298561094508,51.3426003738871
04319,Leipzig,12.4298561094508,51.3426003738871
04328,Leipzig,12.451879540918,51.3485458679045
04329,Leipzig,12.4682899135653,51.3591079869906
04347,Leipzig,12.4217583762459,51.361896953518
04349,Leipzig,12.4492022493611,51.3909661643052
04356,Leipzig,12.4401668557006,51.4212075374621
04357,Leipzig,12.4117985796606,51.3822076173024
04416,Markkleeberg,12.3889204344979,51.2687032993467
04420,Markranstädt,12.2211992218854,51.2891977911683
04425,Taucha,12.5114512111022,51.3920499932463
04430,Böhlitz-Ehrenberg,12.2432762354154,51.3559139206556
04435,Schkeuditz,12.2199350715792,51.4006268604343
04439,Engelsdorf,12.5055497926427,51.3314489469419
04442,Zwenkau,12.308936553491,51.2227253359244
04445,Markkleeberg,12.470837306257,51.2789146912471
04448,Wiederitzsch,12.3809155441796,51.4098623696945
04451,Borsdorf,12.5432044572604,51.3547810545218
04454,Holzhausen,12.476892296404,51.3048476214957
04457,Mölkau,12.4531538710731,51.330639183418
04460,Zwenkau,12.2242057057646,51.2182224390448
04463,Großpösna,12.4783958301848,51.2555931737753
04466,Lindenthal,12.336031348193,51.403189550099
04469,Lützschema-Stahmeln,12.2834931677938,51.3903864035007
04509,Delitzsch,12.3540893294459,51.5050963420478
04519,Rackwitz,12.3923988975717,51.4442215906216
04523,Pegau,12.2468769618758,51.1685102177171
04539,Groitzsch,12.3171424354412,51.1301585938282
04552,Borna,12.4892200608762,51.1274493774671
04564,Böhlen,12.3872102067848,51.2106912011367
04565,Regis-Breitingen,12.431013409662,51.0913633740767
04567,Kitzscher,12.5624933510742,51.1723485087927
04571,Rötha,12.4273861285881,51.2027935830858
04574,Neukieritzsch,12.4124975634588,51.1158147186552
04575,Neukieritzsch,12.3789753025592,51.1633050021571
04579,Espenhain,12.4993782702102,51.2091132783251
04600,Altenburg,12.4396082600746,50.9787274538803
04603,Altenburg,12.4643335989671,50.9600749230382
04610,Meuselwitz,12.3480752174873,51.0563331929355
04613,Lucka,12.3319712670842,51.0861728296777
04617,Altenburg,12.3652493877661,51.0151293766588
04618,Langenleuba-Niederhain,12.5770304718426,50.9502635485601
04626,Schmölln,12.3102455710081,50.8983785812604
04639,Gößnitz,12.4237710327968,50.873975112611
04643,Geithain,12.6507686344043,51.0831576094679
04651,Bad Lausick,12.6760064285766,51.1460850388363
04654,Frohburg,12.5596584922644,51.0627418347635
04655,Kohren-Sahlis,12.5913539425324,51.0138467393956
04657,Langensteinbach,12.6720050667348,50.9893938482057
04668,Grimma,12.7343133496508,51.2145485284711
04680,Colditz,12.8092978240245,51.1260307568365
04683,Naunhof,12.5767212896108,51.271758322968
04685,Nerchau,12.8190504023833,51.2766637362082
04687,Trebsen / Mulde,12.7313526360469,51.2877426957742
04688,Mutschen,12.8870621322598,51.26068719464
04703,Leisnig,12.9372759228576,51.1676366624669
04720,Döbeln,13.1185033523152,51.1417764579461
04736,Waldheim,13.0134829549687,51.0666189210948
04741,Roßwein,13.1791283247753,51.0796261264052
04746,Hartha,12.9902997556681,51.1134642496225
04749,Ostrau,13.1526608540259,51.2024772100378
04758,Oschatz,13.1215273735526,51.3452688946092
04769,Mügeln,13.0737737585398,51.2415697159446
04774,Dahlen,12.9853897466733,51.3683300150655
04779,Wermsdorf,12.9628263646574,51.2895993215411
04808,Wurzen,12.8063092816288,51.3900676989149
04821,Brandis,12.6282637944233,51.3266474063332
04824,Beucha,12.5684804330818,51.3216570428175
04827,Machern,12.6286765516949,51.3775615471981
04828,Bennewitz,12.7037063905749,51.344648409688
04838,Eilenburg,12.6860933859381,51.4957576734798
04849,Bad Düben,12.6461408917646,51.5960417380883
04860,Torgau,12.9709264250654,51.5409942774071
04861,Torgau,12.9709264250654,51.5409942774071
04874,Belgern,13.1238507788261,51.459498131359
04880,Dommitzsch,12.84978657406,51.6194880591067
04886,Torgau,13.0897450546123,51.573718086373
04889,Schildau,12.9658636074665,51.4555436832849
04895,Falkenberg / Elster,13.2064305376999,51.5876482814071
04910,Elsterwerda,13.5119239726314,51.4696576104114
04916,Herzberg / Elster,13.2453582251887,51.75956182998
04924,Bad Liebenwerda,13.3769215875885,51.516776631457
04928,Plessa,13.6409511234533,51.4633468918685
04931,Bad Liebenwerda,13.2531142656928,51.4269832652403
04932,Prösen,13.5668065114159,51.4155989172342
04934,Hohenleipisch,13.5687387535445,51.5082479987285
04936,Schlieben,13.4267493536179,51.7469427151217
04938,Uebigau,13.325906935149,51.607393122447
06108,Halle / Saale,11.9662475222527,51.4882414080261
06110,Halle / Saale,11.9742330961222,51.4726326143124
06112,Halle / Saale,11.9971805646992,51.4805757338108
06114,Halle / Saale,11.9696374791132,51.5002909621487
06116,Halle / Saale,12.0392046785579,51.4785704883763
06118,Halle / Saale,11.990138446183,51.5214070213509
06120,Halle / Saale,11.9019696090115,51.5084478826948
06122,Halle / Saale,11.9329853645139,51.4851179835922
06124,Halle / Saale,11.9352488488315,51.4705493587358
06126,Halle / Saale,11.9005915254274,51.4790839684832
06128,Halle / Saale,11.9485959958226,51.4509649775318
06130,Halle / Saale,11.9942544073096,51.4543689843495
06132,Halle / Saale,11.9909915623822,51.4269622846291
06179,Teutschenthal,11.8139981105672,51.4638797327049
06184,Dieskau,12.1022524904989,51.4201347959256
06188,Landsberg,12.1068075406033,51.529501803091
06193,Löbejün,11.9501465908287,51.6012625958585
06198,Wettin,11.8108763894801,51.5717482111287
06217,Merseburg / Saale,11.9861244920452,51.3222647097515
06231,Bad Dürrenberg,12.0978023873219,51.3049252300908
06237,Leuna,12.0143052819163,51.3078820485509
06242,Braunsbedra,11.890853094951,51.2897394659139
06246,Bad Lauchstädt,11.8728400853179,51.3821881311044
06249,Mücheln / Geiseltal,11.7990211903051,51.3044928984231
06254,Wallendorf / Luppe,12.1189412219016,51.3583904924102
06255,Schafstädt,11.7812863992652,51.3721559292173
06258,Schkopau,11.9818559613755,51.3960982543435
06259,Frankleben,11.9449057090502,51.3108756854775
06268,Querfurt,11.606452530147,51.3474147993435
06279,Schraplau,11.6254135734154,51.4303559915242
06295,Eisleben,11.58766671179,51.5193671789769
06308,Benndorf,11.4951777310338,51.579822286718
06311,Helbra,11.5021549269455,51.5559218166929
06313,Hergisdorf,11.4753952324519,51.5304013477177
06317,Röblingen am See,11.6798224413823,51.4744252201209
06318,Wansleben am See,11.7580358390738,51.4603754207704
06333,Hettstedt,11.4649124030939,51.6684161705108
06343,Mansfeld,11.4092992191018,51.5909570857805
06347,Gerbstedt,11.6623290479279,51.6222098945348
06348,Großörner,11.4868831348093,51.618269313772
06366,Köthen / Anhalt,11.9984793277858,51.7581528157269
06369,Köthen / Anhalt,11.987301136388,51.7384196634245
06385,Kleinzerbst,12.0570947419085,51.8470260774227
06386,Osternienburg,12.0878818893545,51.7779652009762
06388,Gröbzig,11.9292260899425,51.6854521672225
06406,Bernburg / Saale,11.746589834486,51.7973275374417
06408,Ilberstedt,11.7796486560128,51.7691922792176
06420,Könnern,11.7940203476863,51.6701348098005
06425,Alsleben / Saale,11.6731187212613,51.7085139533045
06429,Nienburg / Saale,11.7841742363704,51.8431311629708
06449,Aschersleben,11.4570419658436,51.800666041547
06456,Sandersleben,11.5604266863853,51.7006631812331
06458,Hedersleben,11.2864658999984,51.8643354848372
06463,Ermsleben,11.3254308956291,51.7310850877174
06464,Frose,11.3768219374139,51.789542149262
06466,Gatersleben,11.2927550373405,51.8166306138066
06467,Hoym,11.3088211287465,51.7840074947777
06469,Nachterstedt,11.3733715263156,51.8145373405862
06484,Quedlinburg,11.1543823658707,51.8043893812344
06485,Quedlinburg,11.1543823658707,51.8043893812344
06493,Ballenstedt,11.1706177155339,51.6600469678918
06502,Thale / Harz,11.0481819705911,51.7523552271514
06507,Gernrode,11.0649794436773,51.6907470524146
06526,Sangerhausen,11.2939507611881,51.473432124833
06528,Wallhausen,11.2879073715998,51.4901450948996
06536,Roßla,11.0730338735781,51.5058205670487
06537,Kelbra / Kyffhäuser,11.0945868308912,51.4320753913474
06542,Allstedt,11.4180573953223,51.4113349122114
06543,Wippra,11.2894199199643,51.622475044779
06547,Stolberg / Harz,10.9749686559181,51.5834436428758
06548,Rottleberode,10.9889498313129,51.5199227397072
06556,Artern / Unstrut,11.2935534798108,51.3636252746143
06567,Bad Frankenhausen / Kyffhäuser,11.0879619417191,51.3650491363353
06571,Roßleben,11.3859723492902,51.2950620729582
06577,Heldrungen,11.2408652706642,51.2811828757022
06578,Oldisleben,11.1318992746778,51.3006308743297
06618,Naumburg / Saale,11.8245552903681,51.1286073248373
06628,Bad Kösen,11.6943713143845,51.1295151109419
06632,Freyburg / Unstrut,11.7672176123783,51.2369895681938
06636,Laucha / Unstrut,11.6617227593663,51.2261767294874
06638,Karsdorf,11.6383744807334,51.2760350488671
06642,Nebra / Unstrut,11.5281018263304,51.2627288933697
06647,Bad Bibra,11.5447751177798,51.1956955579926
06648,Eckartsberga,11.5265251535704,51.1332510026029
06667,Weißenfels,11.939570549929,51.1959139171483
06679,Hohenmölsen,12.1120382637312,51.1715427545215
06682,Teuchern,12.0246061931873,51.1286299613915
06686,Lützen,12.1208279019383,51.2340742906798
06688,Großkorbetha,12.0224725718048,51.2615221848623
06712,Zeitz,12.1326542565044,51.0313420535447
06721,Osterfeld,11.9567766062684,51.0735432708229
06722,Droyßig,11.9963730588227,51.0299535839097
06724,Kayna,12.1853213840226,51.0059806082067
06725,Profen,12.1979214119735,51.1246495535012
06727,Theißen,12.1163979417598,51.0982289068342
06729,Tröglitz,12.225343616854,51.0672322383968
06749,Bitterfeld,12.3570996288414,51.6232517942516
06766,Wolfen,12.2414476061813,51.6705321023532
06772,Gräfenhainichen,12.5112298557344,51.740023407907
06773,Gräfenhainichen,12.5112298557344,51.740023407907
06774,Pouch,12.527760808465,51.6423467925274
06779,Dessau,12.2517728510694,51.7313459169875
06780,Zörbig,12.1293939682895,51.6256289737216
06785,Oranienbaum,12.4247286008481,51.8009298605094
06786,Vockerode,12.4222602640289,51.8462977080974
06791,Zschornewitz,12.3804066567452,51.7278688472326
06792,Sandersdorf,12.2589548582211,51.6311039991786
06794,Zscherndorf,12.2214159224884,51.6027321342761
06796,Brehna,12.2064874810512,51.5612254852392
06800,Jeßnitz,12.3263162731707,51.68465567602
06803,Greppin,12.2962013488615,51.6518816778899
06804,Muldenstein,12.385874363235,51.6748285393591
06808,Holzweißig,12.3350819980435,51.5981126893487
06809,Roitzsch,12.2770356872009,51.5809081580122
06842,Dessau,12.3036968731842,51.791176430644
06844,Dessau,12.2738218121756,51.8527522723214
06846,Dessau,12.1854512725513,51.8489294621642
06847,Dessau,12.1920974697973,51.7973093727484
06849,Dessau,12.2597617131324,51.7998838363924
06861,Dessau-Roßlau,12.2597617131324,51.7998838363924
06862,Roßlau / Elbe,12.3133850951095,51.9540485850399
06869,Coswig / Anhalt,12.4589177436279,51.9261098408206
06886,Wittenberg,12.6184971831313,51.8711897739943
06888,Wittenberg,12.713090924558,51.8611747546491
06889,Wittenberg,12.713090924558,51.8611747546491
06895,Zahna,12.7642874164663,51.9388458174877
06896,Wittenberg,12.6247672508236,51.9499748642697
06901,Kemberg,12.6957356792577,51.7751851831519
06905,Bad Schmiedeberg,12.7119564477929,51.6957477647318
06909,Pretzsch / Elbe,12.7827917505715,51.7273432616097
06917,Jessen / Elster,12.9570113944388,51.8065586402059
06918,Elster / Elbe,12.8885805026894,51.8748029947278
06922,Prettin,12.9241647127707,51.6946966182531
06925,Annaburg,13.0687192153067,51.7137341256633
06926,Holzdorf,13.1250916855999,51.7943816084288
06928,Jessen / Elster,13.1196739134638,51.8650516869313
07318,Saalfeld / Saale,11.3299744091449,50.6259351262563
07330,Probstzella,11.3847435908755,50.552677052717
07333,Unterwellenborn,11.430360854678,50.6810743085035
07334,Kamsdorf,11.4722251306449,50.6347826082225
07336,Könitz,11.4895586209716,50.6611125303224
07338,Kaulsdorf,11.4943261047182,50.5846497035097
07343,Wurzbach,11.5195667360178,50.4472988626744
07349,Lehesten,11.4575214694023,50.4695950725703
07356,Lobenstein. Moorbad,11.5935206223689,50.4849812347115
07366,Lobenstein. Moorbad,11.6743854549961,50.4156560299454
07368,Ebersdorf / Thüringen,11.6586090320888,50.5236118750782
07381,Pößneck,11.6011003167057,50.7061155152272
07387,Krölpa,11.520159278719,50.6718316758634
07389,Ranis,11.6264883980434,50.6480175319359
07407,Rudolstadt,11.3478176538805,50.7553776363662
07422,Bad Blankenburg,11.2066910822377,50.685770564439
07426,Königsee,11.1102476717725,50.6552540085181
07427,Schwarzburg,11.199640691106,50.647750625862
07429,Sitzendorf,11.2073748719122,50.6161408495569
07545,Gera,12.0867795903403,50.8812552246626
07546,Gera,12.1015615456598,50.887634357804
07548,Gera,12.0430157263032,50.8768343494099
07549,Gera,12.0620557984077,50.8401766346874
07551,Gera,12.1126783705392,50.8368658890013
07552,Gera,12.0647272901622,50.9183036886093
07554,Gera,12.1310597359673,50.9248567967924
07557,Gera,12.0126290459413,50.8220779403262
07558,Töppeln,12.0030940629166,50.8979614171369
07570,Weida,12.0273664791665,50.7721363654503
07580,Ronneburg,12.2111705983277,50.8387210714108
07586,Bad Köstritz,11.965453784803,50.90616263298
07589,Münchenbernsdorf,11.9364425587913,50.833556135822
07607,Eisenberg,11.8845787564917,50.9657724699035
07613,Krossen / Elster,11.9411090731559,50.989526523504
07616,Bürgel,11.7798712236149,50.9557040800003
07619,Schkölen,11.8159735836736,51.0218670199036
07629,Hermsdorf,11.85939050461,50.8754364341252
07639,Bad Klosterlausnitz,11.8803540643462,50.9214662783369
07646,Stadtroda,11.7530464179552,50.8469779924126
07743,Jena,11.5991979164673,50.9525831163874
07745,Jena,11.5645155260795,50.9080082942493
07747,Jena,11.6129105442311,50.8901302877122
07749,Jena,11.6152308281228,50.9234851356731
07751,Jena,11.58303165039,50.902514995611
07768,Kahla,11.5517106898604,50.8010541574023
07774,Camburg,11.7232552069721,51.0401769689154
07778,Dorndorf-Steudnitz,11.6538423595465,50.99680468923
07806,Neustadt / Orla,11.7357384649495,50.7241073410755
07819,Triptis,11.8341410845468,50.7401591255581
07907,Schleiz,11.8155778004631,50.5942709690231
07919,Schleiz,11.9109553943808,50.5481104601518
07922,Tanna,11.8613639912742,50.4904383769769
07924,Ziegenrück,11.7125047996814,50.6063828529521
07926,Gefell,11.825190848082,50.4464677919037
07927,Hirschberg,11.8168541799613,50.421965474658
07929,Saalburg,11.7506218754476,50.5040557408063
07937,Zeulenroda,11.9862374645373,50.6364969052911
07950,Triebes,11.9996822910413,50.6989939289957
07952,Pausa / Vogtland,12.0128972845541,50.5846903778175
07955,Auma,11.9057915331088,50.7021345478783
07957,Langenwetzendorf,12.1045750748333,50.6731188627181
07958,Hohenleuben,12.0547913273412,50.7115698097412
07973,Greiz,12.1959335707288,50.6577674739626
07980,Berga / Elster,12.1514906395221,50.7401807475254
07985,Elsterberg,12.1490982489236,50.6074070942332
07987,Mohlsdorf,12.2707660366772,50.6786460778154
07989,Teichwolframsdorf,12.2277972678638,50.7275813460746
08056,Zwickau,12.486863749973,50.7070949223661
08058,Zwickau,12.4732938708401,50.7434160498603
08060,Zwickau,12.446934771112,50.7254479686663
08062,Zwickau,12.4694099890743,50.6954720638055
08064,Zwickau,12.4741064460124,50.6699308964447
08066,Zwickau,12.5281236823179,50.7294977177248
08107,Kirchberg,12.524903811567,50.5997089450946
08112,Wilkau-Haßlau,12.5165811126253,50.6672621649902
08115,Lichtentanne,12.4161417134645,50.6803569278233
08118,Hartenstein,12.672409328799,50.6721234550497
08121,Wiesenburg,12.5661580905752,50.6587648798226
08124,Cainsdorf,12.4955961848419,50.6747576309374
08129,Mosel,12.4804784415366,50.769930215282
08132,Mülsen Sankt Jacob,12.5822818420749,50.7431293722002
08134,Langenbach,12.6071724553909,50.6498618562331
08138,Thurm,12.5350671223928,50.7744438698686
08141,Reinsdorf,12.5620258467453,50.7010919153192
08144,Ebersbrunn,12.4537821126743,50.6384622179008
08146,Ortmannsdorf,12.6138453304008,50.7146705241455
08147,Crinitzberg,12.5017820560612,50.5726264148723
08149,Vielau,12.5486461783056,50.6823937888668
08209,Auerbach / Vogtland,12.4175172040978,50.490605793024
08223,Falkenstein / Vogtland,12.3550336030861,50.4430691570352
08228,Rodewisch,12.4262198012763,50.541850654435
08233,Treuen,12.3045293685056,50.5416225742726
08236,Ellefeld,12.3888085420852,50.4822713758959
08237,Steinberg,12.488071628113,50.5405166645188
08239,Bergen,12.2970321759247,50.4834749327399
08248,Klingenthal / Sachsen,12.4694300457428,50.3874652993947
08258,Markneukirchen,12.3332466743015,50.3075436069232
08261,Schöneck / Vogtland,12.3302626150211,50.3919346549638
08262,Tannenbergsthal / Vogtland,12.5097482638738,50.4297289379388
08265,Erlbach,12.3863286698248,50.3173301282003
08267,Zwota,12.4120971669422,50.3616359200149
08269,Hammerbrücke,12.4247297491474,50.435334631793
08280,Aue,12.695325019294,50.5916917300756
08289,Schneeberg,12.621056157556,50.5936306884689
08294,Lößnitz,12.7495759934588,50.6266225016488
08297,Zwönitz,12.8154041759413,50.6336643514439
08301,Schlema,12.6645371972865,50.6173198119268
08304,Schönheide,12.5181132156025,50.5011718277378
08309,Eibenstock,12.6095540779127,50.4739556406081
08312,Lauter / Sachsen,12.7250955869306,50.5542937674015
08315,Bernsbach,12.7643359942988,50.5825687383669
08318,Hundshübel,12.5898439245185,50.5428595041894
08321,Zschorlau,12.6446383291751,50.5535407582263
08324,Bockau,12.6827406995226,50.5302227190108
08325,Carlsfeld,12.5629377917501,50.4458608660715
08326,Sosa,12.6714942545114,50.4881809532701
08328,Stützengrün,12.5323289475989,50.5350664240952
08340,Schwarzenberg / Erzgebirge,12.7720954709853,50.5321872678262
08349,Johanngeorgenstadt,12.7009047647323,50.4439937771012
08352,Raschau,12.8542660629096,50.5121548287826
08355,Rittersgrün,12.8241038159626,50.4650924876
08358,Grünhain,12.8167169450852,50.5812598942335
08359,Breitenbrunn / Erzgebirge,12.7574079383302,50.4749808562199
08371,Glauchau,12.5599624357773,50.8173134598226
08373,Glauchau,12.5663346534213,50.8595637223699
08393,Meerane,12.4793185089081,50.8462307110417
08396,Waldenburg,12.5860136916214,50.8873234905535
08399,Wolkenburg-Kaufungen,12.6739019551163,50.8986628962385
08412,Werdau,12.3475629193248,50.7281180570154
08427,Fraureuth,12.3523399324194,50.6950227242493
08428,Langenbernsdorf,12.2948191476575,50.7586497148081
08432,Steinpleis,12.4029056064417,50.7130917932938
08439,Crimmitschau,12.3998919347796,50.776021375039
08451,Crimmitschau,12.3523358791229,50.815778481942
08459,Neukirchen / Pleiße,12.3871137140808,50.7856720409436
08468,Reichenbach / Vogtland,12.3318122708773,50.6231017688435
08485,Lengenfeld,12.3762108053875,50.5853191299302
08491,Netzschkau,12.2436381286013,50.598473587115
08496,Neumark,12.3531807418877,50.6566176990435
08499,Mylau,12.2637239824055,50.6234321433249
08523,Plauen,12.1160258048543,50.498539064081
08525,Plauen,12.1169079409849,50.5231334307979
08527,Plauen,12.0986247751092,50.4804942293455
08529,Plauen,12.1718490562522,50.5003517187303
08538,Weischlitz,12.0025987258213,50.4400272495619
08539,Mehltheuer,11.9990703840543,50.5307907907031
08541,Neuensalz,12.2327286288619,50.5000504630127
08543,Pöhl,12.1966776226283,50.5587768662103
08547,Jößnitz,12.1344254407869,50.5512608543529
08548,Syrau,12.0829234930141,50.5549179119474
08606,Oelsnitz,12.1238888751382,50.3945874005033
08626,Adorf,12.2251333029982,50.3501341425937
08645,Bad Elster,12.2504877661935,50.2833356736527
08648,Bad Brambach,12.3030082375668,50.2273069161752
09111,Chemnitz,12.9267830162303,50.8372846848644
09112,Chemnitz,12.9065871546338,50.8331045538051
09113,Chemnitz,12.913110691005,50.8491029007125
09114,Chemnitz,12.9137143723459,50.8732864922514
09116,Chemnitz,12.8713348985652,50.8284565742832
09117,Chemnitz,12.8356181312698,50.8236465230746
09119,Chemnitz,12.8942987983772,50.8162899788091
09120,Chemnitz,12.9109222516754,50.8114359835977
09122,Chemnitz,12.8873696000231,50.7976341231625
09123,Chemnitz,12.9369546750296,50.7701145615889
09125,Chemnitz,12.9422952093239,50.7898915599258
09126,Chemnitz,12.9400361625267,50.8141428648277
09127,Chemnitz,12.9819527238901,50.818208752639
09128,Chemnitz,13.0211799635062,50.8161243062206
09130,Chemnitz,12.9537758233364,50.8380174254233
09131,Chemnitz,12.9671023638916,50.8628164479176
09212,Limbach-Oberfrohna,12.7373537960335,50.8635838312403
09217,Burgstädt,12.8066132989662,50.9239047697883
09221,Neukirchen / Erzgebirge,12.8659780722872,50.7719828793929
09224,Grüna,12.7921182779284,50.8161629163608
09228,Wittgensdorf,12.8645128330111,50.887704658556
09232,Hartmannsdorf,12.7975494485357,50.8840816342806
09235,Burkhardtsdorf,12.9177988374825,50.7331390223064
09236,Claußnitz,12.8821165651038,50.9406361777314
09238,Auerswalde,12.9243894676595,50.9111720576876
09240,Kemtau,12.958349125034,50.743120155424
09241,Mühlau,12.7658153780141,50.9020793157059
09243,Niederfrohna,12.7354003356927,50.8892584513475
09244,Lichtenau,12.9942248778037,50.9118669102667
09246,Pleißa,12.7682123440334,50.838454425384
09247,Röhrsdorf,12.8296799269788,50.8621556174322
09249,Taura bei Burgstädt,12.8577915926272,50.911482556408
09306,Rochlitz,12.8308972196979,51.0316222706455
09322,Penig,12.7284358069656,50.9324267657589
09326,Geringswalde,12.9134052347516,51.0752029583313
09328,Lunzenau,12.7550378603045,50.9662961144297
09337,Hohenstein-Ernstthal,12.6753139142084,50.8236906566503
09350,Lichtenstein / Sachsen,12.6370534881619,50.7506509176925
09353,Oberlungwitz,12.7389711773462,50.7897238404594
09355,Gersdorf,12.7028680699199,50.7614869398771
09356,Sankt Egidien,12.6345213654408,50.8026604935581
09358,Wüstenbrand,12.7487732756206,50.8126353755586
09366,Stollberg / Erzgebirge,12.7709763519226,50.6975125911581
09376,Oelsnitz / Erzgebirge,12.6938119111935,50.7210982205368
09380,Thalheim / Erzgebirge,12.8351508185078,50.6866554088866
09385,Lugau / Erzgebirge,12.7522546032833,50.760236645411
09387,Jahnsdorf,12.8275139701905,50.7569240318118
09390,Gornsdorf,12.8803298493942,50.7185220995974
09392,Auerbach,12.9111176710294,50.689758895448
09394,Hohndorf,12.675769364323,50.74453824975
09395,Hormersdorf,12.8797256787179,50.6718723552009
09397,Neuwürschnitz,12.7292813974357,50.7055198906432
09399,Niederwürschnitz,12.7608322832993,50.729363502681
09405,Zschopau,13.0597737391109,50.7647137513564
09419,Thum,12.9510771969286,50.6760233459322
09423,Gelenau / Erzgebirge,12.953934236289,50.7122313564724
09427,Ehrenfriedersdorf,12.9607465596613,50.6463922637836
09429,Wolkenstein,13.0775790445392,50.6541068865493
09430,Drebach,13.0128790020574,50.6804718502294
09432,Großolbersdorf,13.0839784161063,50.6965986852825
09434,Krumhermersdorf,13.1079809576973,50.7369405296452
09435,Scharfenstein,13.0480578638079,50.7086185162863
09437,Waldkirchen / Erzgebirge,13.1261679701576,50.7461117837534
09439,Amtsberg,13.0095124582895,50.7446706510406
09456,Annaberg-Buchholz,13.0390824395746,50.5776455647398
09465,Sehma,12.9823186972563,50.4963432977372
09468,Geyer,12.9187137657074,50.6144189254258
09471,Bärenstein,13.0468369493324,50.52944555
09474,Crottendorf,12.9291348167857,50.5036818268231
09477,Jöhstadt,13.132163278331,50.5428078390332
09481,Scheibenberg,12.8767929562876,50.5768897844397
09484,Oberwiesenthal,12.9515776540159,50.4415038592064
09487,Schlettau,12.9510470370559,50.5674974417951
09488,Wiesa,13.0135686535114,50.6183364171423
09496,Marienberg,13.1980228446334,50.6135223477325
09509,Pockau / Flöhatal,13.2775179666108,50.7230616069823
09514,Lengefeld,13.1824485837044,50.7233213388058
09517,Zöblitz,13.2551133668441,50.6602989502376
09518,Großrückerswalde,13.1148796209929,50.6213940783332
09526,Olbernhau,13.342204773134,50.6560545973962
09544,Neuhausen / Erzgebirge,13.4948988190735,50.6822287250406
09548,Seiffen / Erzgebirge,13.4620314236802,50.6333391691379
09557,Flöha,13.0798404157347,50.8740218856906
09569,Oederan,13.1845283574642,50.8665296643539
09573,Leubsdorf,13.1311130401514,50.8082236428566
09575,Eppendorf,13.2581692375491,50.7967993849914
09577,Niederwiesa,13.0187579019308,50.8686686848228
09579,Borstendorf,13.1899750618595,50.7677983024004
09599,Freiberg,13.3340225849824,50.9145219996183
09600,Freiberg,13.3504903258263,50.9097680422667
09603,Großschirma,13.2695286155511,50.9689037877956
09618,Brand-Erbisdorf,13.3169088578281,50.8142568418226
09619,Mulda / Sachsen,13.4171472121539,50.7585486755528
09623,Frauenstein,13.5377862576833,50.7683485989789
09627,Bobritzsch,13.4488220608783,50.891661803463
09629,Reinsberg,13.3834598099214,51.0163125589043
09633,Halsbrücke,13.370679660526,50.9593036398592
09634,Siebenlehn,13.2912660234433,51.015353131559
09636,Langenau,13.2844789348611,50.83613961687
09638,Lichtenberg / Erzgebirge,13.4056970982759,50.8331420484761
09648,Mittweida,12.9852705366061,50.9886713757471
09661,Hainichen,13.1405155309005,50.9980768437475
09669,Frankenberg,13.0748925243345,50.9202833210158