40210,Düsseldorf,6.7909488813476,51.2231615308057
40211,Düsseldorf,6.79140088345842,51.2302634706793
40212,Düsseldorf,6.78180860013902,51.2253358026817
40213,Düsseldorf,6.77285093516085,51.2263665950437
40215,Düsseldorf,6.7845698332748,51.2163945268279
40217,Düsseldorf,6.77483311256493,51.2141360025872
40219,Düsseldorf,6.76354323416523,51.2151915838703
40221,Düsseldorf,6.74632120854869,51.2057317675777
40223,Düsseldorf,6.77415759878406,51.2023717800315
40225,Düsseldorf,6.79385409399693,51.1981268793586
40227,Düsseldorf,6.80437079492956,51.2148924159265
40229,Düsseldorf,6.84524631544067,51.1990152816603
40231,Düsseldorf,6.83207566002766,51.2143830876068
40233,Düsseldorf,6.81111316072114,51.2243519039585
40235,Düsseldorf,6.82527812301939,51.2331569443373
40237,Düsseldorf,6.81002631573658,51.238470631137
40239,Düsseldorf,6.80368100643192,51.2458387222131
40468,Düsseldorf,6.77653140633403,51.2699485993453
40470,Düsseldorf,6.80761557157317,51.2556619717432
40472,Düsseldorf,6.82473284135356,51.2716544976454
40474,Düsseldorf,6.74807187125579,51.2768029071806
40476,Düsseldorf,6.78239639642035,51.2494831863832
40477,Düsseldorf,6.78612253889704,51.24114583473
40479,Düsseldorf,6.78035081463646,51.2355897410827
40489,Düsseldorf,6.76542219792242,51.3230391106277
40545,Düsseldorf,6.75532476214629,51.2305279930006
40547,Düsseldorf,6.74171735375158,51.2463032932294
40549,Düsseldorf,6.71687407571635,51.234604923458
40589,Düsseldorf,6.81977016804843,51.1684650157983
40591,Düsseldorf,6.82174889811034,51.1914423011116
40593,Düsseldorf,6.87251924169879,51.1438866630949
40595,Düsseldorf,6.90353419948103,51.1413666436113
40597,Düsseldorf,6.87587643627388,51.1669711347
40599,Düsseldorf,6.87167353506396,51.1820065653607
40625,Düsseldorf,6.85595405042477,51.2334271016183
40627,Düsseldorf,6.88199731176035,51.204020216533
40629,Düsseldorf,6.88614471423279,51.2560036473628
40667,Meerbusch,6.68423141260411,51.260275850026
40668,Meerbusch,6.68657454627478,51.3070816151843
40670,Meerbusch,6.628486531919,51.2766532383888
40699,Erkrath,6.92812722492601,51.2191803283122
40721,Hilden,6.91778835254093,51.164921555554
40723,Hilden,6.94425903128005,51.15708943984
40724,Hilden,6.95490542399553,51.1829627423578
40764,Langenfeld (Rheinland),6.95779078709084,51.1122094336657
40789,Monheim am Rhein,6.89302981608255,51.0977147980856
40822,Mettmann,6.97753918797343,51.2590886293646
40878,Ratingen,6.84604253274218,51.296328520117
40880,Ratingen,6.82039838184362,51.2994803172205
40882,Ratingen,6.89612654534953,51.2962778821386
40883,Ratingen,6.89831372631533,51.3298581059289
40885,Ratingen,6.85827366643173,51.3457714174218
41061,Mönchengladbach,6.43379455120694,51.1963658241177
41063,Mönchengladbach,6.42755508723078,51.2126952034515
41065,Mönchengladbach,6.46624462831919,51.1966278059136
41066,Mönchengladbach,6.4707941258135,51.2278729806533
41068,Mönchengladbach,6.39169212227634,51.2032534078055
41069,Mönchengladbach,6.39730495152922,51.182358104057
41169,Mönchengladbach,6.3462302202475,51.2041636795454
41179,Mönchengladbach,6.35115829789603,51.1581848259664
41189,Mönchengladbach,6.39758157131725,51.1151427290516
41199,Mönchengladbach,6.44964987805675,51.1293538039135
41236,Mönchengladbach,6.44645220452545,51.1647906551843
41238,Mönchengladbach,6.4899162470544,51.1642501885933
41239,Mönchengladbach,6.42143874258963,51.1624672365692
41334,Nettetal,6.25039539050394,51.3173884012756
41352,Korschenbroich,6.54951585316983,51.1868369224419
41363,Jüchen,6.50634670301496,51.1032818327703
41366,Schwalmtal,6.2722188777994,51.2195155951231
41372,Niederkrüchten,6.15507528594268,51.2058530841151
41379,Brüggen,6.164228320984,51.2641348140474
41460,Neuss,6.70734653854578,51.2044502835937
41462,Neuss,6.66519971616975,51.2181826816457
41464,Neuss,6.66496293833533,51.1902135984504
41466,Neuss,6.69571601911573,51.1675224393217
41468,Neuss,6.76261002093531,51.1700662474549
41469,Neuss,6.72079450089301,51.1533545289454
41470,Neuss,6.73764862248429,51.1360427057338
41472,Neuss,6.65373028145222,51.1603306967012
41515,Grevenbroich,6.60018126207889,51.0884728260391
41516,Grevenbroich,6.63835945798542,51.1221424829991
41517,Grevenbroich,6.58255480448035,51.0554622446253
41539,Dormagen,6.84593032258494,51.1023594850232
41540,Dormagen,6.79869198739599,51.0774970175026
41541,Dormagen,6.82986286843692,51.1340570380625
41542,Dormagen,6.7546254889498,51.1076905467517
41564,Kaarst,6.61041781932095,51.2204334713477
41569,Rommerskirchen,6.69096541438303,51.0577748805175
41747,Viersen,6.38501791708553,51.2534912540576
41748,Viersen,6.40821736085596,51.2431136495791
41749,Viersen,6.36492443928424,51.2931854535552
41751,Viersen,6.32018404117976,51.2547437085541
41812,Erkelenz,6.33976163844284,51.0682561927624
41836,Hückelhoven,6.23179837687393,51.0440422393506
41844,Wegberg,6.24885811651616,51.1434058523557
41849,Wassenberg,6.14512070770182,51.1132304639289
42103,Wuppertal,7.14709107509388,51.2578484235017
42105,Wuppertal,7.13964210828242,51.2644119885341
42107,Wuppertal,7.15576968307399,51.2660529438535
42109,Wuppertal,7.14785067649483,51.2789322264694
42111,Wuppertal,7.14099228075348,51.297070460444
42113,Wuppertal,7.10428157112284,51.2755077555378
42115,Wuppertal,7.10983032647689,51.2585589391417
42117,Wuppertal,7.12666072634062,51.2439884014329
42119,Wuppertal,7.15770802757092,51.245948151893
42275,Wuppertal,7.20566486620308,51.2760621065596
42277,Wuppertal,7.22194436759373,51.2847672595724
42279,Wuppertal,7.23718015756623,51.3016617521812
42281,Wuppertal,7.18964767751516,51.2892137357253
42283,Wuppertal,7.18255323662561,51.2747415448044
42285,Wuppertal,7.17497065724117,51.2591839324019
42287,Wuppertal,7.224029235301,51.2500247788829
42289,Wuppertal,7.22004127736076,51.2662270397097
42327,Wuppertal,7.06311145468742,51.2463177222307
42329,Wuppertal,7.08052609806453,51.2268062423631
42349,Wuppertal,7.13566343373445,51.209312046552
42369,Wuppertal,7.1986159245407,51.2304239305188
42389,Wuppertal,7.25294750210811,51.2737595111505
42399,Wuppertal,7.27801912492903,51.2341928328531
42477,Radevormwald,7.36072552258526,51.2136657313703
42489,Wülfrath,7.03539615706076,51.2933874228538
42499,Hückeswagen,7.33220348221289,51.1492514558089
42549,Velbert,7.02246790222004,51.3380717102676
42551,Velbert,7.06024465172369,51.3520922500652
42553,Velbert,7.1033304157063,51.318263697608
42555,Velbert,7.12195757380586,51.356716921585
42579,Heiligenhaus,6.96278764158882,51.3302991524066
42651,Solingen,7.10285248478448,51.1780642234815
42653,Solingen,7.08238832876945,51.2040837462026
42655,Solingen,7.05747825370982,51.1695740120291
42657,Solingen,7.06164111902222,51.146230147914
42659,Solingen,7.12663001609861,51.1448482915766
42697,Solingen,6.98966097361336,51.1614361123198
42699,Solingen,7.01898672852845,51.1486541530739
42719,Solingen,7.04154377520159,51.1897099457931
42781,Haan,7.0108696856898,51.2108272123188
42799,Leichlingen (Rheinland),7.05904565930772,51.1134534730848
42853,Remscheid,7.18131823016275,51.1858918573197
42855,Remscheid,7.19740467086028,51.1984254579985
42857,Remscheid,7.159046448624,51.1721574981178
42859,Remscheid,7.20698454547433,51.1677194213235
42897,Remscheid,7.27240607150765,51.1802270386981
42899,Remscheid,7.23469434543578,51.2114657286818
42929,Wermelskirchen,7.21920970520984,51.1141076824954
44135,Dortmund,7.47343106952101,51.5146960071935
44137,Dortmund,7.44713838005436,51.5099325185119
44139,Dortmund,7.46148989187883,51.4988734003494
44141,Dortmund,7.50118293669465,51.5054480087816
44143,Dortmund,7.51678670323911,51.518600097447
44145,Dortmund,7.48488895890734,51.5360824731944
44147,Dortmund,7.44097982253206,51.5298469699716
44149,Dortmund,7.39586965727274,51.501133040489
44225,Dortmund,7.44843878522239,51.4798977373652
44227,Dortmund,7.42094001937447,51.4672178926193
44229,Dortmund,7.46172350549383,51.4584821358526
44263,Dortmund,7.49839939608644,51.490276154646
44265,Dortmund,7.4904342691171,51.4429515235002
44267,Dortmund,7.5228396929803,51.4602284493592
44269,Dortmund,7.52733101563997,51.4876578945081
44287,Dortmund,7.55984136425488,51.4923910298938
44289,Dortmund,7.58848821282847,51.4885186887071
44309,Dortmund,7.55486081065968,51.5286773252964
44319,Dortmund,7.59766032652271,51.5390205972516
44328,Dortmund,7.53499766434755,51.549923257356
44329,Dortmund,7.53884297388724,51.5716014776553
44339,Dortmund,7.46511874124353,51.5681272817192
44357,Dortmund,7.3657226199253,51.554623019586
44359,Dortmund,7.39611534505886,51.5730534602465
44369,Dortmund,7.4044930915758,51.5368903470027
44379,Dortmund,7.37353495358958,51.5139526178755
44388,Dortmund,7.33394966684231,51.5086745295212
44532,Lünen,7.53928362755845,51.5991313631188
44534,Lünen,7.51114787403423,51.6326971692407
44536,Lünen,7.46431367284431,51.6038142855594
44575,Castrop-Rauxel,7.30511056365992,51.5521942968475
44577,Castrop-Rauxel,7.33294381385904,51.5481993152561
44579,Castrop-Rauxel,7.28640835756612,51.5781303074068
44581,Castrop-Rauxel,7.32350753524701,51.6005417800917
44623,Herne,7.22284901926912,51.5401755499186
44625,Herne,7.21155374735111,51.5290114150298
44627,Herne,7.26527795065112,51.5376067438786
44628,Herne,7.24587440253666,51.5584098043984
44629,Herne,7.20837125558115,51.5515186342515
44649,Herne,7.14992811256576,51.5346551512136
44651,Herne,7.16116190197644,51.5150666398751
44652,Herne,7.17395739569565,51.5276962764459
44653,Herne,7.1628282891125,51.5469391209218
44787,Bochum,7.2167121725093,51.4840049423119
44789,Bochum,7.22015931478103,51.4706579577448
44791,Bochum,7.24908776745934,51.491655156367
44793,Bochum,7.18131530441447,51.4857464647046
44795,Bochum,7.19671602805366,51.453041755608
44797,Bochum,7.22833274759835,51.4289234226658
44799,Bochum,7.23452953383334,51.4560332595779
44801,Bochum,7.26776592871433,51.4500721289692
44803,Bochum,7.26044049555104,51.4736444298718
44805,Bochum,7.27828848568538,51.5135626948388
44807,Bochum,7.2276156982536,51.5104739700914
44809,Bochum,7.19663136308682,51.5011039201391
44866,Bochum,7.14117188530904,51.4874020062043
44867,Bochum,7.13866259700407,51.469195994325
44869,Bochum,7.15680476976828,51.4550271215656
44879,Bochum,7.16104375732032,51.4307261470635
44892,Bochum,7.31927481924538,51.4701258513149
44894,Bochum,7.30943449232781,51.4896023761059
45127,Essen,7.008753968688,51.4586961144773
45128,Essen,7.0117894532133,51.4479687084371
45130,Essen,7.0091914780157,51.4395684689165
45131,Essen,7.00068949564075,51.4309252379535
45133,Essen,6.98369790164304,51.4053347002318
45134,Essen,7.03604733872096,51.4208098860419
45136,Essen,7.0403459766715,51.4384142632909
45138,Essen,7.04179399287199,51.4502371589374
45139,Essen,7.03852439791756,51.4617395700872
45141,Essen,7.02527476091512,51.4755584006906
45143,Essen,6.9781763410604,51.4621012703868
45144,Essen,6.96621108077671,51.4537381197296
45145,Essen,6.97577479508498,51.4483712394014
45147,Essen,6.98354567031232,51.4414698795883
45149,Essen,6.96220225759434,51.4214511160788
45219,Essen,6.943576685596,51.367304984324
45239,Essen,7.01598718504531,51.3830125277721
45257,Essen,7.08800559404098,51.3882305863979
45259,Essen,7.06161624709986,51.4075437956812
45276,Essen,7.07393507045453,51.4497616654236
45277,Essen,7.07693805074475,51.4277143567944
45279,Essen,7.11040015681632,51.4446010316321
45289,Essen,7.11290934637508,51.4216407958044
45307,Essen,7.08730798213,51.4658850306387
45309,Essen,7.069714646776,51.479711019731
45326,Essen,7.00676086548325,51.485107188174
45327,Essen,7.04499643265277,51.4992857175439
45329,Essen,7.00774636216092,51.5141464430345
45355,Essen,6.94995034049594,51.4740881659181
45356,Essen,6.97153242797239,51.4924852641464
45357,Essen,6.92785037812266,51.4871419168226
45359,Essen,6.92392206997671,51.4668809003326
45468,Mülheim an der Ruhr,6.88594982634952,51.4297775769527
45470,Mülheim an der Ruhr,6.91586739502872,51.4087971878084
45472,Mülheim an der Ruhr,6.93411345245477,51.4381818189345
45473,Mülheim an der Ruhr,6.88950722877474,51.4453176366585
45475,Mülheim an der Ruhr,6.89726183226014,51.4607403674411
45476,Mülheim an der Ruhr,6.85351751640288,51.4508221562522
45478,Mülheim an der Ruhr,6.83368570452308,51.4335208075706
45479,Mülheim an der Ruhr,6.84190308040474,51.4107621299176
45481,Mülheim an der Ruhr,6.86194849864572,51.3857973005881
45525,Hattingen,7.18149321201694,51.3983220203566
45527,Hattingen,7.21589602959941,51.3821766113338
45529,Hattingen,7.1625644994824,51.3707436273915
45549,Sprockhövel,7.25436274852384,51.3409581292473
45657,Recklinghausen,7.19146571756654,51.6195896173335
45659,Recklinghausen,7.18314747550999,51.61840092282
45661,Recklinghausen,7.1910639169044,51.5711391232255
45663,Recklinghausen,7.23146658469956,51.5804930426225
45665,Recklinghausen,7.24792242424317,51.6104948388002
45699,Herten,7.14769405433955,51.5842305749872
45701,Herten,7.10845873949232,51.61383894673
45711,Datteln,7.31964537321595,51.6675386331283
45721,Haltern,7.18297629351738,51.7537428531741
45731,Waltrop,7.3976905061543,51.6244335937687
45739,Oer-Erkenschwick,7.23781863441244,51.6622882976413
45768,Marl,7.05801993610302,51.6558573884383
45770,Marl,7.1439742113501,51.6605771627086
45772,Marl,7.11599909928071,51.6878656591272
45879,Gelsenkirchen,7.09422362114849,51.5074086885497
45881,Gelsenkirchen,7.07863180952606,51.5285024259591
45883,Gelsenkirchen,7.05712246590032,51.5154383889844
45884,Gelsenkirchen,7.0845770890135,51.4934186141858
45886,Gelsenkirchen,7.11864101982773,51.4991346811294
45888,Gelsenkirchen,7.11805545154942,51.5179268800199
45889,Gelsenkirchen,7.11022695447703,51.5376570371888
45891,Gelsenkirchen,7.08174970144914,51.5593155331453
45892,Gelsenkirchen,7.11157055160658,51.5721755419602
45894,Gelsenkirchen,7.05658911035039,51.5826435374217
45896,Gelsenkirchen,7.02851589356686,51.6072345927372
45897,Gelsenkirchen,7.04130812771978,51.5605660236072
45899,Gelsenkirchen,7.03043069983145,51.5397718367201
45964,Gladbeck,6.97635593735931,51.5676535357954
45966,Gladbeck,6.9653045241161,51.5890684879265
45968,Gladbeck,7.00333115736941,51.554273715545
46045,Oberhausen,6.85904108800413,51.4685628667936
46047,Oberhausen,6.87920935364432,51.4828812808562
46049,Oberhausen,6.83449025390201,51.474406722268
46117,Oberhausen,6.89126657331466,51.5021086087928
46119,Oberhausen,6.88043237604663,51.5228783689339
46145,Oberhausen,6.85753268173248,51.5323303051883
46147,Oberhausen,6.81741619279884,51.5482320716477
46149,Oberhausen,6.83454826699556,51.513579977789
46236,Bottrop,6.92443512222444,51.5264668980946
46238,Bottrop,6.96327771352459,51.5230598808213
46240,Bottrop,6.93259585642621,51.5488183120394
46242,Bottrop,6.90532040619228,51.5266446519507
46244,Bottrop,6.90907045549528,51.6035980344771
46282,Dorsten,6.97096005383906,51.649801591417
46284,Dorsten,6.97204288553811,51.6833304816814
46286,Dorsten,6.99739025765965,51.7451848434064
46325,Borken,6.83095175622464,51.8544783847291
46342,Velen,6.9562439733423,51.8973794351484
46348,Raesfeld,6.83235431138579,51.7671545392595
46354,Südlohn,6.84672297754785,51.9458737076631
46359,Heiden,6.95595994418138,51.8267963383424
46395,Bocholt,6.57550144313932,51.8204751423229
46397,Bocholt,6.65808741917044,51.8695551919555
46399,Bocholt,6.5811196393289,51.8713085990585
46414,Rhede,6.70480488766847,51.8315228613255
46419,Isselburg,6.45347729358487,51.8348686690797
46446,Emmerich,6.24760452908383,51.8512404360576
46459,Rees,6.41947417922445,51.7745473639762
46483,Wesel,6.61209536777958,51.6641629526922
46485,Wesel,6.65656722273349,51.6635558943118
46487,Wesel,6.53900794971661,51.6743914282871
46499,Hamminkeln,6.61715517449326,51.749999549795
46509,Xanten,6.43264241848079,51.6738033713681
46514,Schermbeck,6.83430365978649,51.7000997261121
46519,Alpen,6.48799515448482,51.5970354383132
46535,Dinslaken,6.72566852755782,51.5597516599672
46537,Dinslaken,6.73584641708061,51.5796760301938
46539,Dinslaken,6.79634560558227,51.5767320110886
46562,Voerde (Niederrhein),6.65063028415531,51.6018998838643
46569,Hünxe,6.76411180652275,51.643071596986
47051,Duisburg,6.76730565268883,51.4337564278564
47053,Duisburg,6.75232866678064,51.421189891076
47055,Duisburg,6.77103990404906,51.402820624343
47057,Duisburg,6.79863985550282,51.4216639940868
47058,Duisburg,6.79569847832406,51.4428653196956
47059,Duisburg,6.74061337610481,51.4408830382615
47119,Duisburg,6.73507023031141,51.4597829761084
47137,Duisburg,6.76949874585266,51.473820717566
47138,Duisburg,6.79024373738507,51.4655012790386
47139,Duisburg,6.71563912027902,51.4823114826386
47166,Duisburg,6.75439256425926,51.4942366601324
47167,Duisburg,6.79958729186294,51.5020140207381
47169,Duisburg,6.75617678427243,51.513461461907
47178,Duisburg,6.70501223380768,51.5434579575757
47179,Duisburg,6.73649656909471,51.5269774565553
47198,Duisburg,6.69814480102614,51.4532481172747
47199,Duisburg,6.67861324281445,51.497487188562
47226,Duisburg,6.71916178399097,51.408334275635
47228,Duisburg,6.69495560317093,51.4216461193441
47229,Duisburg,6.70679100404456,51.3894755894943
47239,Duisburg,6.65583299217079,51.4018182039892
47249,Duisburg,6.75827186052803,51.3839747479399
47259,Duisburg,6.71153163835338,51.3599333902561
47269,Duisburg,6.79138738594192,51.3617386904831
47279,Duisburg,6.80196164786219,51.3869131741262
47441,Moers,6.62253140566809,51.4496543484953
47443,Moers,6.65481724522878,51.4650679190879
47445,Moers,6.60748773782734,51.4925070084794
47447,Moers,6.61579802157971,51.4188678162821
47475,Kamp-Lintfort,6.51922448262539,51.516807700791
47495,Rheinberg,6.60979533511584,51.5564942172749
47506,Neukirchen-Vluyn,6.55014740229524,51.444089352394
47509,Rheurdt,6.47465213770446,51.4517355267961
47533,Kleve,6.1241524595353,51.8033156875698
47546,Kalkar,6.31018907300154,51.7506489157148
47551,Bedburg-Hau,6.20570427482445,51.7593032052072
47559,Kranenburg,6.01617057803875,51.7895351978794
47574,Goch,6.12365740345187,51.6955467194504
47589,Uedem,6.29341627819429,51.67579465928
47608,Geldern,6.31037355087113,51.5192066399181
47623,Kevelaer,6.23030007063542,51.5777677219258
47624,Kevelaer,6.19811926687156,51.5507423902125
47625,Kevelaer,6.29117059223779,51.5615724591273
47626,Kevelaer,6.31351573028022,51.5944237779097
47627,Kevelaer,6.27095793624496,51.6290348546862
47638,Straelen,6.25912271452456,51.4292048059806
47647,Kerken,6.38832017920374,51.4480723488078
47652,Weeze,6.18059191387701,51.6206397655552
47661,Issum,6.43298120034799,51.5219039274182
47665,Sonsbeck,6.37562199522843,51.6161642363312
47669,Wachtendonk,6.32664139306514,51.4002910411409
47798,Krefeld,6.55782340774541,51.3329195092922
47799,Krefeld,6.5760371533144,51.3378267990622
47800,Krefeld,6.60114888803259,51.3513700694829
47802,Krefeld,6.57431809910463,51.3801300129224
47803,Krefeld,6.54485880177897,51.3499953524023
47804,Krefeld,6.52306079555063,51.3136865071183
47805,Krefeld,6.56725420997047,51.3210127933002
47807,Krefeld,6.58370998037743,51.3028754558307
47809,Krefeld,6.6453232806981,51.33047920064
47829,Krefeld,6.64102084517331,51.3710871230601
47839,Krefeld,6.50741988192233,51.3754107762924
47877,Willich,6.51883817339427,51.2637215930823
47906,Kempen,6.43721151074132,51.3795783887416
47918,Tönisvorst,6.45233395743864,51.3177094508954
47929,Grefrath,6.35032146213425,51.3416850215853
48143,Münster,7.62590064329494,51.962509766295
48145,Münster,7.65190083251146,51.9664620997196
48147,Münster,7.6341873181365,51.9790224749288
48149,Münster,7.59642537191787,51.9657941405091
48151,Münster,7.6104239179556,51.9454494348638
48153,Münster,7.62466716422957,51.935493688838
48155,Münster,7.66989253271813,51.953697568085
48157,Münster,7.68221816967566,52.0023548035916
48159,Münster,7.59807001068997,52.0148555209458
48161,Münster,7.54339702743188,51.9843031108267
48163,Münster,7.57584176846056,51.8960259639132
48165,Münster,7.65325550348209,51.9011725303054
48167,Münster,7.72169454120213,51.9247655354069
48231,Warendorf,7.95732689310952,51.9504180845479
48249,Dülmen,7.28801254710918,51.8485869196865
48268,Greven,7.63275153766485,52.0978289540853
48282,Emsdetten,7.52267563045261,52.1758159417052
48291,Telgte,7.78609757680343,51.995741318453
48301,Nottuln,7.35967941155916,51.9236997047547
48308,Senden,7.49916141183619,51.8627889071791
48317,Drensteinfurt,7.72656211086472,51.8023913053651
48324,Sendenhorst,7.79016353104756,51.8548321012072
48329,Havixbeck,7.44123440371567,51.9764438788531
48336,Sassenberg,8.04483905602131,52.0141243680518
48341,Altenberge,7.47697315819205,52.0406611309815
48346,Ostbevern,7.83182803444733,52.0563702808386
48351,Everswinkel,7.84055607173019,51.9202251789945
48356,Nordwalde,7.48376662067494,52.102457224101
48361,Beelen,8.11908686149508,51.9260737668709
48366,Laer,7.36403090291691,52.0609169930118
48369,Saerbeck,7.63719139773265,52.1824147027151
48429,Rheine,7.4596260330946,52.2859845592389
48431,Rheine,7.42576957594909,52.2758605856345
48432,Rheine,7.47907482393185,52.2620626949718
48455,Bad Bentheim,7.10542459141124,52.2966492355863
48465,Schüttorf,7.20854636221208,52.3431937132856
48477,Hörstel,7.57833787248608,52.292760151621
48480,Spelle,7.47895273847902,52.3928530693021
48485,Neuenkirchen,7.37293024841209,52.2379526819973
48488,Emsbüren,7.307204473828,52.4036661101658
48493,Wettringen,7.29342818884521,52.2321233132038
48496,Hopsten,7.62622778791857,52.4070551738802
48499,Salzbergen,7.35198236295959,52.323148489838
48527,Nordhorn,7.04738301947884,52.4738922685349
48529,Nordhorn,7.08301742905639,52.3981193203111
48531,Nordhorn,7.12896163010589,52.4411430860815
48565,Steinfurt,7.36801182545896,52.1464484805258
48599,Gronau (Westfalen),7.03445788123397,52.1923955739563
48607,Ochtrup,7.18239067617313,52.2150074482022
48612,Horstmar,7.29520707183004,52.1015601604803
48619,Heek,7.09017635900623,52.1310612027745
48624,Schöppingen,7.19580796256911,52.0871986969041
48629,Metelen,7.20574074776011,52.1498034394782
48653,Coesfeld,7.15213488512102,51.9190759514504
48683,Ahaus,6.95973127797191,52.1014809517457
48691,Vreden,6.80716335809351,52.0649769092819
48703,Stadtlohn,6.92876826699692,52.0047744981517
48712,Gescher,7.02140659718091,51.9487630916705
48720,Rosendahl,7.19212420661174,52.015841024957
48727,Billerbeck,7.31323988093122,51.9917219208641
48734,Reken,7.06390572350489,51.8245949576648
48739,Legden,7.09417065451015,52.0478958324335
49074,Osnabrück,8.05289024386721,52.279323951573
49076,Osnabrück,7.97611742653571,52.2911795483843
49078,Osnabrück,7.9901354377741,52.2627847138017
49080,Osnabrück,8.03100229806893,52.2616654058132
49082,Osnabrück,8.04840742413108,52.247197083015
49084,Osnabrück,8.08383699619759,52.2756150665647
49086,Osnabrück,8.12166501068937,52.2707493823079
49088,Osnabrück,8.06524154391396,52.3004907804702
49090,Osnabrück,8.01970758413348,52.31335818412
49124,Georgsmarienhütte,8.0734843488174,52.2077712165885
49134,Wallenhorst,8.02252744878303,52.3470598225018
49143,Bissendorf,8.22193336106918,52.2665185494148
49152,Bad Essen,8.37729897430697,52.3244879067254
49163,Bohmte,8.27215801083443,52.4168302466984
49170,Hagen am Teutoburger Wald,7.96299530177683,52.1993931071253
49176,Hilter am Teutoburger Wald,8.16791319171526,52.1761385806183
49179,Ostercappeln,8.19867426902388,52.3813061763992
49186,Bad Iburg,8.05578145054884,52.1511408258058
49191,Belm,8.14076962250185,52.3315491472692
49196,Bad Laer,8.08130562762028,52.1007267030439
49201,Dissen am Teutoburger Wald,8.20788727432213,52.1257577020003
49205,Hasbergen,7.96020901162169,52.2416636624582
49214,Bad Rothenfelde,8.15583503943862,52.1003456572355
49219,Glandorf,7.9688257607272,52.0804617340525
49324,Melle,8.33162747346202,52.2142606242279
49326,Melle,8.3066537331827,52.1664505032062
49328,Melle,8.41677692183519,52.2225307406504
49356,Diepholz,8.36118897139629,52.6118792958996
49377,Vechta,8.28360068611683,52.7428116120401
49393,Lohne (Oldenburg),8.22881571940841,52.6651038014258
49401,Damme,8.23795490509162,52.5304809018316
49406,Barnstorf,8.53884991247494,52.7048339590477
49413,Dinklage,8.09871538582047,52.6651697347368
49419,Wagenfeld,8.61789511081012,52.5467381400695
49424,Goldenstedt,8.39933696170034,52.7739756338212
49429,Visbek,8.30951469866864,52.8339579408623
49434,Neuenkirchen-Vörden,8.09823962120605,52.5029231302977
49439,Steinfeld (Oldenburg),8.22014018223387,52.5996849426306
49448,Lemförde,8.39223592280106,52.4888816844295
49451,Holdorf,8.12448221802875,52.5784673227256
49453,Rehden,8.50299228676851,52.6023829577379
49456,Bakum,8.14273687248753,52.7366134873325
49457,Drebber,8.40663465870528,52.67654702591
49459,Lembruch,8.36659691158902,52.5312422933001
49477,Ibbenbüren,7.70836490942347,52.2814276258538
49479,Ibbenbüren,7.69848067080764,52.2797295223003
49492,Westerkappeln,7.85838979462685,52.3203541765075
49497,Mettingen,7.77730644022743,52.3279422687986
49504,Lotte,7.92529681589822,52.302855611683
49509,Recke,7.70465222796352,52.364821432881
49525,Lengerich,7.82731661387794,52.1762305192211
49536,Lienen,7.9300572437907,52.1352793103499
49545,Tecklenburg,7.80351942163351,52.2260717105826
49549,Ladbergen,7.76105886582337,52.1337145398904
49565,Bramsche,7.99655727195621,52.4186140280079
49577,Ankum,7.84889417203317,52.5542197715168
49584,Fürstenau,7.6805953052432,52.5084955249691
49586,Neuenkirchen,7.81193975490245,52.4463891018731
49593,Bersenbrück,7.93933291497714,52.5643159937256
49594,Alfhausen,7.95084653430492,52.4981602148395
49596,Gehrde,8.00859859434055,52.5793654733499
49597,Rieste,8.01957627826875,52.4911741575493
49599,Voltlage,7.73788837667501,52.4395527495622
49610,Quakenbrück,7.964526823418,52.6797805971894
49624,Löningen,7.75594427318084,52.7383453749932
49626,Berge,7.70411436208328,52.5992956487624
49632,Essen (Oldenburg),7.95942000788859,52.7297223707001
49635,Badbergen,7.97946839821977,52.6386161210343
49637,Menslage,7.81262301156595,52.6722857610307
49638,Nortrup,7.87359755407256,52.6193389881101
49661,Cloppenburg,8.03097470463802,52.8550009850014
49681,Garrel,8.03644360888845,52.9489883594437
49685,Emstek,8.16440402362722,52.8556598841562
49688,Lastrup,7.89378259085477,52.7934818846979
49692,Cappeln (Oldenburg),8.08528216221212,52.7900928304023
49696,Molbergen,7.89562927280622,52.8702918008223
49699,Lindern (Oldenburg),7.76743416557707,52.8320186756553
49716,Meppen,7.28363974918597,52.705738883445
49733,Haren (Ems),7.19946896320767,52.7979565124241
49740,Haselünne,7.46236930568522,52.6781564206223
49744,Geeste,7.24118586798879,52.6116344556658
49751,Sögel,7.52802310248688,52.8567741322431
49757,Werlte,7.69138374931678,52.863046215923
49762,Lathen,7.30664220832623,52.8802963852283
49767,Twist,7.09561250831634,52.6684871116314
49770,Herzlake,7.60664218180377,52.6673763552783
49774,Lähden,7.60298652872026,52.7546586894208
49777,Stavern,7.43778674368697,52.7878968225177
49779,Niederlangen,7.22831488458093,52.8608405662329
49808,Lingen (Ems),7.28154827648071,52.5413615569097
49809,Lingen (Ems),7.33088316233904,52.5188374215989
49811,Lingen (Ems),7.37562665398959,52.5124534668015
49824,Emlichheim,6.84474005567829,52.6154100072978
49828,Neuenhaus,7.00897322932826,52.531301558096
49832,Freren,7.51795810513622,52.4767510608938
49835,Wietmarschen,7.17893574165847,52.5176595540699
49838,Lengerich,7.51497136527411,52.570650538196
49843,Uelsen,6.88048886860459,52.4906559742527
49844,Bawinkel,7.41541798832285,52.593189087711
49846,Hoogstede,6.95988629414302,52.5834664335362
49847,Itterbeck,6.75171262368264,52.515639247171
49849,Wilsum,6.83232010355411,52.5455804810811